IBM HR Analytics · Zichen's Portfolio
…
      work_life_balance == 4 ~ "Best"
    )
  ) %>% 
  select(age, attrition, daily_rate, department,
         distance_from_home, education,
         gender, job_role,environment_satisfaction,
         job_satisfaction, marital_status,
         monthly_income, num_companies_worked, percent_salary_hike,
         performance_rating, total_working_years,
         work_life_balance, years_at_company,
         years_since_last_promotion)
# print
hr_cleaned

## # A tibble: 1,470 x 19
##      age attrition daily_rate department distance_from_h… education gender
##    <dbl> <chr>          <dbl> <chr>                 <dbl> <chr>     <chr> 
##  1    41 Yes             1102 Sales                     1 College   Female
##  2    49 No               279 Research …                8 Below Co… Male  
##  3    37 Yes             1373 Research …                2 College   Male  
##  4    33 No              1392 Research …                3 Master    Female
##  5    27 No               591 Research …                2 Below Co… Male  
##  6    32 No              1005 Research …                2 College   Male  
##  7    59 No              1324 Research …                3 Bachelor  Female
##  8    30 No              1358 Research …               24 Below Co… Male  
##  9    38 No               216 Research …               23 Bachelor  Male  
## 10    36 No              1299 Research …               27 Bachelor  Male  
## # … with 1,460 more rows, and 12 more variables: job_role <chr>,
## #   environment_satisfaction <chr>, job_satisfaction <chr>,
## #   marital_status <chr>, monthly_income <dbl>, num_companies_worked <dbl>,
## #   percent_salary_hike <dbl>, performance_rating <chr>,
## #   total_working_years <dbl>, work_life_balance <chr>, years_at_company <dbl>,
## #   years_since_last_promotion <dbl>
…
We calculate the median of monthly income by education level, and plot a bar chart to study the same.

# calculate median 
median_monthly_income <- hr_cleaned %>% 
  group_by(education) %>% 
  mutate(median(monthly_income))

median_monthly_income

## # A tibble: 1,470 x 20
## # Groups:   education [5]
##      age attrition daily_rate department distance_from_h… education gender
##    <dbl> <chr>          <dbl> <chr>                 <dbl> <chr>     <chr> 
##  1    41 Yes             1102 Sales                     1 College   Female
##  2    49 No               279 Research …                8 Below Co… Male  
##  3    37 Yes             1373 Research …                2 College   Male  
##  4    33 No              1392 Research …                3 Master    Female
##  5    27 No               591 Research …                2 Below Co… Male  
##  6    32 No              1005 Research …                2 College   Male  
##  7    59 No              1324 Research …                3 Bachelor  Female
##  8    30 No              1358 Research …               24 Below Co… Male  
##  9    38 No               216 Research …               23 Bachelor  Male  
## 10    36 No              1299 Research …               27 Bachelor  Male  
## # … with 1,460 more rows, and 13 more variables: job_role <chr>,
## #   environment_satisfaction <chr>, job_satisfaction <fct>,
## #   marital_status <chr>, monthly_income <dbl>, num_companies_worked <dbl>,
## #   percent_salary_hike <dbl>, performance_rating <chr>,
## #   total_working_years <dbl>, work_life_balance <fct>, years_at_company <dbl>,
## #   years_since_last_promotion <dbl>, `median(monthly_income)` <dbl>
…
