Price Prediction Model for Airbnb in Beijing · Zichen's Portfolio
…
# We are counting the number of amenities available at each property by counting the number of "," (commas) in the string.

    services = sapply(strsplit(listings$amenities, ","), length),
    host_acceptance_rate = case_when(
      is.na(host_acceptance_rate) ~ 0,
      TRUE ~ host_acceptance_rate
      )
  )

# lets examine wifi and breakfast columns
data_cleaned %>% 
  select(c(price, wifi, breakfast))

## # A tibble: 36,283 x 3
##    price wifi  breakfast
##    <dbl> <lgl> <lgl>    
##  1   835 TRUE  FALSE    
##  2  1203 TRUE  TRUE     
##  3   602 TRUE  FALSE    
##  4   602 TRUE  FALSE    
##  5   411 TRUE  TRUE     
##  6   552 TRUE  FALSE    
##  7   601 TRUE  FALSE    
##  8   403 TRUE  FALSE    
##  9   743 TRUE  FALSE    
## 10   418 TRUE  FALSE    
## # … with 36,273 more rows
…
Interestingly, the cleaning fee isn’t correlated to any of the obvious variables (such as number of bathrooms or bedrooms). Instead, we find how the cleaning fee tends to increase with the additional number of people (as opposed to the number of people the flat can accommodate). Perhaps this is because the majority of listings embed their cleaning fee into their price and thus charge a surplus charge if many more individuals stay at the property.

Finally, if you want to hike up the price of your listing, the best way to do so is to simply rent out a larger flat. This was to be expected.

Categorical Data

Some of the character variables have lots of different values, e.g. property_type. Here we look at cleaning this to make it more manageable.

data_cleaned %>% 
  # Counting the frequency of property types
  count(property_type) %>% 
  # Arranging them into descending order by frequency
  arrange(desc(n))

## # A tibble: 45 x 2
##    property_type          n
##    <chr>              <int>
##  1 Apartment          14428
##  2 Condominium         4761
##  3 House               4129
##  4 Loft                2960
##  5 Serviced apartment  2189
##  6 Farm stay           1330
##  7 Villa               1222
##  8 Bungalow             985
##  9 Cottage              596
## 10 Townhouse            513
## # … with 35 more rows
…
As we are looking to model the price of an Airbnb in Beijing for travel/tourism, we should look into the minimum_nights variable. This variable states the minimum number of nights you are able to to book the listing for.

# Visualise the frequency of minimum nights

# arranging listings by minimum_nights
cleaning %>% 
  count(minimum_nights) %>% 
  
# Arrange in descending order of frequency
  
  arrange(desc(n))

## # A tibble: 66 x 2
##    minimum_nights     n
##             <dbl> <int>
##  1              1 30216
##  2              2  2178
##  3              3  1024
##  4             30   819
##  5              7   369
##  6              5   368
##  7             15   316
##  8             90   175
##  9             10   161
## 10             60    89
## # … with 56 more rows
…
#The 5 areas are Ring 2-6  
        neighbourhood_simplified = case_when(
              Ring == "2" ~ "Ring 2",
              Ring == "3" ~ "Ring 3",
              Ring == "4" ~ "Ring 4",
              Ring == "5" ~ "Ring 5",
              TRUE ~ "Ring 6"
              )
  ) %>% 
  
  subset(., select = -Ring)
  
  regression_data

## # A tibble: 33,497 x 35
##    price cleaning_fee extra_people room_type property_type number_of_revie…
##    <dbl>        <dbl>        <dbl> <chr>     <chr>                    <dbl>
##  1   835           71           71 Entire h… Serviced apa…               99
##  2  1203            0            0 Private … Guest suite                  2
##  3   602            0            0 Entire h… Apartment                   66
##  4   602           30            0 Entire h… Apartment                   10
##  5   411           71          106 Entire h… House                      290
##  6   552            0            0 Entire h… Apartment                   26
##  7   601            0            0 Entire h… Apartment                   39
##  8   403            0           64 Entire h… Apartment                   30
##  9   743          283            0 Entire h… Apartment                  117
## 10   418           35           80 Entire h… Apartment                    3
## # … with 33,487 more rows, and 29 more variables: review_scores_rating <dbl>,
## #   longitude <dbl>, latitude <dbl>, neighbourhood <chr>, minimum_nights <dbl>,
## #   guests_included <dbl>, bathrooms <dbl>, bedrooms <dbl>, beds <dbl>,
## #   accommodates <dbl>, host_is_superhost <lgl>, neighbourhood_cleansed <chr>,
## #   cancellation_policy <chr>, listing_url <chr>, is_location_exact <lgl>,
## #   security_deposit <dbl>, review_scores_cleanliness <dbl>,
## #   instant_bookable <lgl>, amenities <chr>,
## #   calculated_host_listings_count <dbl>, reviews_per_month <dbl>,
## #   host_acceptance_rate <dbl>, wifi <lgl>, breakfast <lgl>, services <int>,
…
model8 %>% 
  tidy(conf.int=TRUE)

## # A tibble: 21 x 7
##    term                estimate std.error statistic   p.value conf.low conf.high
##    <chr>                  <dbl>     <dbl>     <dbl>     <dbl>    <dbl>     <dbl>
##  1 (Intercept)          6.92     0.0366      189.   0.         6.85      6.99   
##  2 prop_type_simplifi… -0.0382   0.0115       -3.32 9.12e-  4 -0.0608   -0.0156 
##  3 prop_type_simplifi…  0.0964   0.0132        7.32 2.65e- 13  0.0705    0.122  
##  4 prop_type_simplifi… -0.0243   0.0145       -1.67 9.43e-  2 -0.0528    0.00417
##  5 prop_type_simplifi…  0.262    0.0114       23.1  4.17e-116  0.240     0.284  
##  6 number_of_reviews   -0.00188  0.000197     -9.54 1.58e- 21 -0.00227  -0.00150
##  7 review_scores_rati…  0.00312  0.000365      8.56 1.20e- 17  0.00241   0.00384
##  8 room_typePrivate r… -0.414    0.00934     -44.4  0.        -0.432    -0.396  
##  9 room_typeShared ro… -0.927    0.0195      -47.6  0.        -0.965    -0.888  
## 10 bedrooms             0.0928   0.00676      13.7  1.03e- 42  0.0795    0.106  
## # … with 11 more rows
…
model15 %>%
  tidy(conf.int=TRUE)

## # A tibble: 21 x 7
##    term                 estimate std.error statistic  p.value conf.low conf.high
##    <chr>                   <dbl>     <dbl>     <dbl>    <dbl>    <dbl>     <dbl>
##  1 (Intercept)           6.87     0.0432     159.    0.        6.79      6.96   
##  2 prop_type_simplifie… -0.0300   0.0114      -2.62  8.70e- 3 -0.0524   -0.00758
##  3 prop_type_simplifie…  0.0931   0.0130       7.13  1.00e-12  0.0675    0.119  
##  4 prop_type_simplifie… -0.0140   0.0144      -0.974 3.30e- 1 -0.0423    0.0142 
##  5 prop_type_simplifie…  0.224    0.0114      19.6   8.65e-85  0.201     0.246  
##  6 number_of_reviews    -0.00181  0.000195    -9.32  1.29e-20 -0.00220  -0.00143
##  7 review_scores_rating  0.00297  0.000362     8.22  2.10e-16  0.00227   0.00368
##  8 room_typePrivate ro… -0.443    0.00935    -47.4   0.       -0.461    -0.425  
##  9 room_typeShared room -0.951    0.0193     -49.3   0.       -0.989    -0.914  
## 10 bedrooms              0.0909   0.00669     13.6   7.35e-42  0.0778    0.104  
## # … with 11 more rows
…
final_model %>%
  tidy(conf.int=TRUE)

## # A tibble: 25 x 7
##    term                 estimate std.error statistic  p.value conf.low conf.high
##    <chr>                   <dbl>     <dbl>     <dbl>    <dbl>    <dbl>     <dbl>
##  1 (Intercept)           6.83     0.0431      159.   0.        6.75      6.92   
##  2 prop_type_simplifie… -0.0410   0.0113       -3.63 2.88e- 4 -0.0631   -0.0188 
##  3 prop_type_simplifie…  0.0980   0.0129        7.61 2.95e-14  0.0728    0.123  
##  4 prop_type_simplifie… -0.0207   0.0142       -1.46 1.45e- 1 -0.0486    0.00717
##  5 prop_type_simplifie…  0.220    0.0113       19.5  3.50e-84  0.198     0.243  
##  6 number_of_reviews    -0.00277  0.000198    -14.0  1.70e-44 -0.00316  -0.00239
##  7 review_scores_rating  0.00247  0.000358      6.91 5.17e-12  0.00177   0.00317
##  8 room_typePrivate ro… -0.426    0.00927     -45.9  0.       -0.444    -0.408  
##  9 room_typeShared room -0.905    0.0192      -47.1  0.       -0.942    -0.867  
## 10 bedrooms              0.0914   0.00661      13.8  2.71e-43  0.0785    0.104  
## # … with 15 more rows
…
augment(final_model) %>% 
  arrange(desc(.std.resid))

## # A tibble: 18,571 x 23
##    .rownames price_4_nights prop_type_simpl… number_of_revie… review_scores_r…
##    <chr>              <dbl> <chr>                       <dbl>            <dbl>
##  1 12673               12.3 House                           1              100
##  2 3135                12.4 Condominium                     1               60
##  3 1360                12.0 Apartment                       2              100
##  4 8288                12.5 Apartment                       1               60
##  5 13739               11.6 Apartment                       1               80
##  6 1355                12.5 Other                          16               86
##  7 9017                12.5 Condominium                     1               80
##  8 12477               11.7 Apartment                      35               97
##  9 17536               12.1 Condominium                     6               83
## 10 12907               11.3 Apartment                      25              100
## # … with 18,561 more rows, and 18 more variables: room_type <chr>,
## #   bedrooms <dbl>, beds <dbl>, bathrooms <dbl>, accommodates <dbl>,
## #   host_is_superhost <lgl>, is_location_exact <lgl>,
## #   neighbourhood_simplified <chr>, cancellation_policy <chr>,
## #   `log(security_deposit + 0.001)` <dbl>, wifi <lgl>, breakfast <lgl>,
## #   services <int>, .fitted <dbl>, .std.resid <dbl>, .hat <dbl>, .sigma <dbl>,
## #   .cooksd <dbl>
…
